…
<img src="10022025_Lecture11_EDA_files/figure-gfm/unnamed-chunk-4-1.png" width="90%" />
`for central park and molokai are happening around tmax = 27.5 and 30.0, and waterhole_wa is in lower tmax, and when we looked deeper in the data it was found that waterhole_wa was measuring temperature in celcius and the otehr two variables measured in celcius too but converted to farenheit.`

### Group_by and Counting things

`Datasets are often comprised of groups defined by one or more (categorical) variable; group_by() makes these groupings explicit so that they can be included in subsequent operations. For example, we might group weather_df by name and month:`

``` r
weather_df |>
  group_by(name, month) # it may seem like no changes happened but it have the Groups: name, month when you check the tibble. Layers on a grouping structure on top. What good does it do? 
```

    ## # A tibble: 2,190 × 7
    ## # Groups:   name, month [72]
    ##    name           id          date        prcp  tmax  tmin month     
    ##    <chr>          <chr>       <date>     <dbl> <dbl> <dbl> <date>    
    ##  1 CentralPark_NY USW00094728 2021-01-01   157   4.4   0.6 2021-01-01
    ##  2 CentralPark_NY USW00094728 2021-01-02    13  10.6   2.2 2021-01-01
    ##  3 CentralPark_NY USW00094728 2021-01-03    56   3.3   1.1 2021-01-01
    ##  4 CentralPark_NY USW00094728 2021-01-04     5   6.1   1.7 2021-01-01
    ##  5 CentralPark_NY USW00094728 2021-01-05     0   5.6   2.2 2021-01-01
    ##  6 CentralPark_NY USW00094728 2021-01-06     0   5     1.1 2021-01-01
    ##  7 CentralPark_NY USW00094728 2021-01-07     0   5    -1   2021-01-01
    ##  8 CentralPark_NY USW00094728 2021-01-08     0   2.8  -2.7 2021-01-01
    ##  9 CentralPark_NY USW00094728 2021-01-09     0   2.8  -4.3 2021-01-01
    ## 10 CentralPark_NY USW00094728 2021-01-10     0   5    -1.6 2021-01-01
    ## # ℹ 2,180 more rows
…
``` r
weather_df |>
  group_by(month) |>
  summarize(
    n=n()
  ) # tells you the number of observations by months.
```

    ## # A tibble: 24 × 2
    ##    month          n
    ##    <date>     <int>
    ##  1 2021-01-01    93
    ##  2 2021-02-01    84
    ##  3 2021-03-01    93
    ##  4 2021-04-01    90
    ##  5 2021-05-01    93
    ##  6 2021-06-01    90
    ##  7 2021-07-01    93
    ##  8 2021-08-01    93
    ##  9 2021-09-01    90
    ## 10 2021-10-01    93
    ## # ℹ 14 more rows

``` r
weather_df |>
  group_by(month) |>
  summarize(
    n=n_distinct(date)
  ) # tells you the number of observations by each unique date.
```

    ## # A tibble: 24 × 2
    ##    month          n
    ##    <date>     <int>
    ##  1 2021-01-01    31
    ##  2 2021-02-01    28
    ##  3 2021-03-01    31
    ##  4 2021-04-01    30
    ##  5 2021-05-01    31
    ##  6 2021-06-01    30
    ##  7 2021-07-01    31
    ##  8 2021-08-01    31
    ##  9 2021-09-01    30
    ## 10 2021-10-01    31
    ## # ℹ 14 more rows
…
``` r
weather_df |>
  group_by(name,month) |>
  summarize(
    mean_tmax = mean(tmax,na.rm = TRUE),
    median_tmin = median(tmin, na.rm = TRUE),
    sd_prcp = sd(prcp,na.rm = TRUE)
  ) # it tells the mean for tmax and median tmin by name of variable(central park, molokai and waterhole) and the months
```

    ## `summarise()` has grouped output by 'name'. You can override using the
    ## `.groups` argument.

    ## # A tibble: 72 × 5
    ## # Groups:   name [3]
    ##    name           month      mean_tmax median_tmin sd_prcp
    ##    <chr>          <date>         <dbl>       <dbl>   <dbl>
    ##  1 CentralPark_NY 2021-01-01      4.27       -0.5     47.3
    ##  2 CentralPark_NY 2021-02-01      3.87       -1.85    98.1
    ##  3 CentralPark_NY 2021-03-01     12.3         5       71.3
    ##  4 CentralPark_NY 2021-04-01     17.6         8.05    52.4
    ##  5 CentralPark_NY 2021-05-01     22.1        11.1     74.7
    ##  6 CentralPark_NY 2021-06-01     28.1        18.0     43.3
    ##  7 CentralPark_NY 2021-07-01     28.4        21.1    151. 
    ##  8 CentralPark_NY 2021-08-01     28.8        22.2    236. 
    ##  9 CentralPark_NY 2021-09-01     24.8        17.5    333. 
    ## 10 CentralPark_NY 2021-10-01     19.9        13.9    151. 
    ## # ℹ 62 more rows
…
    ## Warning: Removed 17 rows containing missing values or values outside the scale range
    ## (`geom_point()`).

<img src="10022025_Lecture11_EDA_files/figure-gfm/unnamed-chunk-10-1.png" width="90%" />

`Look for cold days.`

``` r
weather_df |>
  group_by(name,month) |>
  mutate(temp_rank = min_rank(tmax)) |> # how to intrepret the temp_rank, also add desc infront of (tmax) like make it look like min_rank(desc(tmax)) ot will give you the hottest days.
  filter(temp_rank <2) # the rankings basically show you 1 will be coldest day, 2 will be second coldest day, and so on.
```

    ## # A tibble: 92 × 8
    ## # Groups:   name, month [72]
    ##    name           id          date        prcp  tmax  tmin month      temp_rank
    ##    <chr>          <chr>       <date>     <dbl> <dbl> <dbl> <date>         <int>
    ##  1 CentralPark_NY USW00094728 2021-01-29     0  -3.8  -9.9 2021-01-01         1
    ##  2 CentralPark_NY USW00094728 2021-02-08     0  -1.6  -8.2 2021-02-01         1
    ##  3 CentralPark_NY USW00094728 2021-03-02     0   0.6  -6   2021-03-01         1
    ##  4 CentralPark_NY USW00094728 2021-04-02     0   3.9  -2.1 2021-04-01         1
    ##  5 CentralPark_NY USW00094728 2021-05-29   117  10.6   8.3 2021-05-01         1
    ##  6 CentralPark_NY USW00094728 2021-05-30   226  10.6   8.3 2021-05-01         1
    ##  7 CentralPark_NY USW00094728 2021-06-11     0  20.6  16.7 2021-06-01         1
    ##  8 CentralPark_NY USW00094728 2021-06-12     0  20.6  16.7 2021-06-01         1
    ##  9 CentralPark_NY USW00094728 2021-07-03    86  18.9  15   2021-07-01         1
    ## 10 CentralPark_NY USW00094728 2021-08-04     0  24.4  19.4 2021-08-01         1
    ## # ℹ 82 more rows

`What about lags? Is today's tmax same as yesterday's tmax? anything that changes. This lagged version of readings has to be shown or measured. For example, cases of Covid over the period of a week. It differs right?`

``` r
weather_df |>
  group_by(name) |>
  mutate(
    lagged_tmax = lag(tmax) #it tells us the lag by each date.This is the example where each line of code order does matter, so I have to use group_by command before the mutate command. The dplyr will not differentiate between two different locations.
  )
```

    ## # A tibble: 2,190 × 8
    ## # Groups:   name [3]
    ##    name           id         date        prcp  tmax  tmin month      lagged_tmax
    ##    <chr>          <chr>      <date>     <dbl> <dbl> <dbl> <date>           <dbl>
    ##  1 CentralPark_NY USW000947… 2021-01-01   157   4.4   0.6 2021-01-01        NA  
    ##  2 CentralPark_NY USW000947… 2021-01-02    13  10.6   2.2 2021-01-01         4.4
    ##  3 CentralPark_NY USW000947… 2021-01-03    56   3.3   1.1 2021-01-01        10.6
    ##  4 CentralPark_NY USW000947… 2021-01-04     5   6.1   1.7 2021-01-01         3.3
    ##  5 CentralPark_NY USW000947… 2021-01-05     0   5.6   2.2 2021-01-01         6.1
    ##  6 CentralPark_NY USW000947… 2021-01-06     0   5     1.1 2021-01-01         5.6
    ##  7 CentralPark_NY USW000947… 2021-01-07     0   5    -1   2021-01-01         5  
    ##  8 CentralPark_NY USW000947… 2021-01-08     0   2.8  -2.7 2021-01-01         5  
    ##  9 CentralPark_NY USW000947… 2021-01-09     0   2.8  -4.3 2021-01-01         2.8
    ## 10 CentralPark_NY USW000947… 2021-01-10     0   5    -1.6 2021-01-01         2.8
    ## # ℹ 2,180 more rows
…
